,22RV1,5637,A2780,A549,C32,CAL27,DB,FADU,HS578T,J82,LOVO,OV56,SW48,SW579,T24,TOLEDO
0,23.42,43.88,32.95,19.41,35.38,18.7,41.58,15.59,54.54,24.01,27.27,12.94,27.04,35.98,40.2,18.88
1,12.51,40.03,23.95,4.63,12.47,18.65,32.92,9.64,16.33,14.23,30.95,11.41,32.56,14.73,24.03,50.0
2,0.01,0.08,0.05,0.12,1.33,0.01,0.0,0.04,0.02,0.0,0.0,0.06,0.04,0.38,0.0,0.02
3,710.84,1248.8,1006.4,884.35,865.16,436.69,999.92,533.84,1978.2,2911.5,547.47,443.94,575.92,1595.9,1676.3,1192.3
4,292.64,266.3,343.75,174.85,168.53,83.88,178.9,173.06,99.55,314.72,303.33,86.21,182.35,246.1,306.48,489.74
5,4.28,43.68,0.26,10.33,17.06,18.29,41.15,7.73,19.18,12.22,12.23,8.96,8.75,17.84,12.88,8.72
6,1.01,0.17,0.07,0.01,0.05,0.19,0.07,0.02,0.1,1.4,0.02,0.08,0.16,4.5,0.01,0.01
7,3.76,87.33,0.29,91.95,31.09,83.42,0.11,36.62,76.86,64.19,66.03,65.5,21.77,27.81,71.09,0.77
8,6.1,83.06,1.8,40.67,0.83,276.57,0.06,95.03,30.25,27.24,17.61,31.88,102.03,70.37,34.15,0.22
9,8.3,23.56,93.66,62.04,0.95,0.23,0.33,1.79,127.09,132.18,20.04,72.5,1.39,62.02,30.03,0.39
10,0.01,0.03,0.0,0.0,0.03,0.01,0.0,0.02,0.0,0.04,0.18,0.04,0.0,0.01,0.02,0.37
11,0.42,0.0,10.31,1.86,0.11,0.02,0.0,0.28,0.01,0.0,0.01,0.04,0.14,0.01,0.0,0.0
12,25.05,33.98,16.7,34.45,22.04,45.83,21.18,66.7,18.52,25.35,23.02,24.17,37.58,23.02,30.65,16.44
13,72.96,55.67,95.06,32.37,292.58,72.21,38.8,65.3,72.17,50.94,38.6,46.0,33.33,58.88,46.4,83.46
14,138.18,131.91,176.46,68.63,72.67,122.17,88.33,137.51,54.68,127.62,101.06,99.52,79.06,129.46,110.2,233.43
15,0.6,2.24,5.1,14.2,8.47,1.23,19.35,1.47,6.77,4.43,3.41,9.95,1.3,14.01,7.62,15.63
16,74.3,49.01,41.39,121.86,29.62,55.88,48.06,48.05,48.97,60.27,32.8,28.9,24.33,50.82,35.81,32.97
17,402.19,565.88,424.96,321.65,977.03,580.49,209.07,720.37,813.19,485.73,505.51,450.44,475.76,524.18,734.22,137.05
18,2.67,8.51,10.31,3.14,4.49,5.74,2.59,10.09,9.04,3.68,6.23,10.24,23.67,10.53,5.58,8.51
19,25.3,42.91,40.46,17.75,14.8,24.72,4.02,52.5,25.52,22.5,46.22,12.94,58.24,11.34,39.33,8.44
20,722.4,731.09,923.19,1409.5,959.7,620.63,817.08,1877.1,691.2,1570.2,534.98,366.95,611.91,726.35,1396.9,1481.0
21,1.5,1.39,1.42,2.94,3.65,1.62,1.7,2.74,1.33,2.67,1.51,1.1,2.33,1.64,2.74,3.78
22,949.47,890.68,1735.6,1141.4,1412.5,909.39,1365.2,1819.7,1105.7,1697.8,1111.4,857.25,1259.1,958.47,1152.9,887.68
23,1711.0,429.79,757.04,642.11,573.5,600.49,191.25,799.34,1519.3,643.6,561.27,896.33,1131.4,515.12,715.49,505.91
24,200.4,98.24,171.95,115.03,73.28,85.75,148.59,143.35,50.28,123.44,197.93,131.72,302.24,87.16,96.95,114.11
25,24.12,64.34,28.02,28.19,73.12,289.22,46.02,69.26,67.09,34.55,44.46,81.97,33.26,40.4,36.52,88.1
26,2.78,26.18,1.37,22.03,22.31,7.9,0.14,14.72,19.61,7.25,11.18,4.73,7.17,17.1,15.7,4.77
27,0.0,0.21,0.01,0.0,19.75,0.0,0.0,0.0,0.11,0.12,0.0,1.12,0.06,2.38,0.0,0.02
28,46.81,20.64,18.02,41.94,84.53,13.06,19.4,15.41,9.6,13.07,61.35,13.08,57.76,8.1,42.47,117.89
29,46.62,86.77,39.57,51.52,70.8,40.87,50.58,42.49,59.38,50.62,50.82,63.01,45.26,47.5,96.79,36.2
30,68.67,130.93,104.95,71.11,119.13,114.86,183.28,72.7,138.34,126.33,87.58,122.07,96.2,164.54,100.84,58.37
31,33.03,54.48,14.17,39.57,71.67,29.83,58.65,37.91,48.57,74.33,41.05,30.08,59.7,32.51,40.09,75.5
32,17.32,8.39,18.22,26.31,13.94,13.4,28.33,12.68,13.83,11.45,11.01,6.31,24.58,8.42,15.49,16.03
33,7.45,7.12,7.3,7.31,9.87,7.34,36.56,7.56,6.57,5.57,16.56,12.08,11.85,10.92,12.48,11.64
34,6.03,1.93,44.22,6.27,0.6,1.65,0.28,4.74,0.1,1.49,0.19,1.52,11.94,2.23,1.02,4.41
35,21.06,18.42,23.49,6.75,15.39,12.34,24.26,20.26,21.17,15.08,19.52,26.14,15.36,21.56,21.92,25.49
36,0.14,15.18,0.55,7.23,14.77,9.05,0.0,28.56,29.69,4.13,26.53,7.89,63.64,108.9,15.61,0.05
37,9.5,19.27,0.19,3.77,0.08,8.55,0.01,4.49,0.18,6.36,2.97,20.98,46.52,0.12,33.88,0.03
38,2.29,18.47,0.81,2.96,13.02,4.8,0.04,4.54,21.16,12.97,4.35,12.0,0.21,35.09,39.37,0.25
39,0.0,0.65,9.55,10.94,0.16,0.03,18.97,5.42,0.07,2.18,0.0,0.01,0.03,2.54,0.09,0.0
40,0.19,2.02,16.63,1.11,2.76,0.78,0.71,0.74,22.26,0.13,1.42,7.71,1.41,16.98,9.44,0.45
41,4.15,30.29,39.03,14.06,61.12,46.86,34.08,6.82,80.87,50.74,39.04,60.15,43.37,60.69,51.93,46.61
42,1.95,41.16,1.86,5.65,1.06,7.0,0.02,0.93,49.05,35.99,0.06,9.94,0.44,24.38,54.74,0.04
43,0.99,0.0,0.03,0.76,1.15,0.04,0.01,0.5,0.01,0.05,0.04,0.23,0.35,0.11,0.01,0.0
44,35.86,51.65,37.68,28.65,31.11,28.11,29.84,26.18,21.52,61.13,23.86,20.47,7.39,30.13,46.93,57.16
45,20.04,8.96,11.24,6.68,24.0,6.24,30.98,11.7,13.18,7.39,12.34,10.23,28.29,8.98,7.55,21.66
46,20.04,8.96,11.24,6.68,24.0,6.24,30.98,11.7,13.18,7.39,12.34,10.23,28.29,8.98,7.55,21.66
47,83.44,297.49,63.29,50.38,73.45,25.04,68.17,75.54,71.94,76.47,54.34,50.86,59.75,81.96,64.36,87.35
48,83.44,297.49,63.29,50.38,73.45,25.04,68.17,75.54,71.94,76.47,54.34,50.86,59.75,81.96,64.36,87.35
49,0.12,0.03,0.56,0.09,0.09,0.34,0.02,0.14,0.01,0.03,0.76,0.04,0.16,0.04,0.82,0.03
50,26.1,40.72,17.28,74.33,39.89,22.65,0.34,39.76,23.11,12.41,20.76,14.29,59.1,9.75,44.8,0.42
51,62.3,80.71,92.49,58.33,70.04,57.78,408.43,85.99,27.89,67.34,55.09,91.58,119.41,60.57,110.87,214.31
52,0.0,1.39,0.0,0.01,11.02,0.0,0.0,0.13,0.75,0.6,1.66,0.02,0.23,0.23,0.04,9.08
